2.014999999999999858e+01   2.256537413805629006e-04
2.025000000000000000e+01   3.036909271443667202e-04
2.035000000000000142e+01   3.691517933293501463e-04
2.044999999999999929e+01   4.581441042676480738e-04
2.055000000000000071e+01   6.162529987879065150e-04
2.064999999999999858e+01   7.767535910865384745e-04
2.075000000000000000e+01   9.694535216176557559e-04
2.085000000000000142e+01   1.197683645636103559e-03
2.094999999999999929e+01   1.455592014899676238e-03
2.105000000000000071e+01   1.792358970385596936e-03
2.114999999999999858e+01   2.096676747604278405e-03
2.125000000000000000e+01   2.601381047581544873e-03
2.135000000000000142e+01   3.072986592618077214e-03
2.144999999999999929e+01   3.568302549535316750e-03
2.155000000000000071e+01   4.197585312827488077e-03
2.164999999999999858e+01   4.878417327952015714e-03
2.175000000000000000e+01   5.644412665306805001e-03
2.185000000000000142e+01   6.465587726677703324e-03
2.194999999999999929e+01   7.247355889531512281e-03
2.205000000000000071e+01   8.162429067520831499e-03
2.214999999999999858e+01   9.214371430133070501e-03
2.225000000000000000e+01   1.020222084894705991e-02
2.235000000000000142e+01   1.129153834691416260e-02
2.244999999999999929e+01   1.238373547352580699e-02
2.255000000000000071e+01   1.346138714994139438e-02
2.264999999999999858e+01   1.460102100822889548e-02
2.275000000000000000e+01   1.573607926254204370e-02
2.285000000000000142e+01   1.682669007085179844e-02
2.294999999999999929e+01   1.793189242692044133e-02
2.305000000000000071e+01   1.874814850059889140e-02
2.314999999999999858e+01   1.938825645530999758e-02
2.325000000000000000e+01   1.990125896197521282e-02
2.335000000000000142e+01   2.006440624248493482e-02
2.344999999999999929e+01   2.031539878706210833e-02
2.355000000000000071e+01   2.033963975200253280e-02
2.364999999999999858e+01   2.005712384764783349e-02
2.375000000000000000e+01   1.982514074343123822e-02
2.385000000000000142e+01   1.949756132582171689e-02
2.394999999999999929e+01   1.917741935217033220e-02
2.405000000000000071e+01   1.878517025782035221e-02
2.414999999999999858e+01   1.840821364155411158e-02
2.425000000000000000e+01   1.790728503295527935e-02
2.435000000000000142e+01   1.747652130949628110e-02
2.444999999999999929e+01   1.712625480370330577e-02
2.455000000000000071e+01   1.664213050469386113e-02
2.464999999999999858e+01   1.618467333428117577e-02
2.475000000000000000e+01   1.577187473996676664e-02
2.485000000000000142e+01   1.523772433960661823e-02
2.494999999999999929e+01   1.481306053984019280e-02
2.505000000000000071e+01   1.440736866249410497e-02
2.514999999999999858e+01   1.402774592178792322e-02
2.525000000000000000e+01   1.364259886665120276e-02
2.535000000000000142e+01   1.314967040269881919e-02
2.544999999999999929e+01   1.276006499756156612e-02
2.555000000000000071e+01   1.241636673737102001e-02
2.564999999999999858e+01   1.204744965969116975e-02
2.575000000000000000e+01   1.175148248546592673e-02
2.585000000000000142e+01   1.146186348012669630e-02
2.594999999999999929e+01   1.120442237489482906e-02
2.605000000000000071e+01   1.086733935670795674e-02
2.614999999999999858e+01   1.068964577113913107e-02
2.625000000000000000e+01   1.039061382212683182e-02
2.635000000000000142e+01   1.023925970937122551e-02
2.644999999999999929e+01   1.005749572155412684e-02
2.655000000000000071e+01   9.893001841518724720e-03
2.664999999999999858e+01   9.730778567316676966e-03
2.675000000000000000e+01   9.551579592050739309e-03
2.685000000000000142e+01   9.431289951953133327e-03
2.694999999999999929e+01   9.218776137136213550e-03
2.705000000000000071e+01   9.004800624494466860e-03
2.714999999999999858e+01   8.911194531378271999e-03
2.725000000000000000e+01   8.702192356248732857e-03
2.735000000000000142e+01   8.648572497727192998e-03
2.744999999999999929e+01   8.463478483547485012e-03
2.755000000000000071e+01   8.315293600539676658e-03
2.764999999999999858e+01   8.168575851562540069e-03
2.775000000000000000e+01   8.112827626027420413e-03
2.785000000000000142e+01   7.988966166331847724e-03
2.794999999999999929e+01   7.866659155224418193e-03
2.805000000000000071e+01   7.823721959428753953e-03
2.814999999999999858e+01   7.777455561521456895e-03
2.825000000000000000e+01   7.662580562306359026e-03
2.835000000000000142e+01   7.602169346787689477e-03
2.844999999999999929e+01   7.518515129191723212e-03
2.855000000000000071e+01   7.421136285969910998e-03
2.864999999999999858e+01   7.358931695934788943e-03
2.875000000000000000e+01   7.250473437724882717e-03
2.885000000000000142e+01   7.242841556552388239e-03
2.894999999999999929e+01   7.211828015741602455e-03
2.905000000000000071e+01   7.109447884804152330e-03
2.914999999999999858e+01   7.284022462796187029e-03
2.925000000000000000e+01   7.179208999878916933e-03
2.935000000000000142e+01   7.124445728000058757e-03
2.944999999999999929e+01   7.162272309896849411e-03
2.955000000000000071e+01   7.013844331016169317e-03
2.964999999999999858e+01   7.029049643200275914e-03
2.975000000000000000e+01   6.944862924859902635e-03
2.985000000000000142e+01   6.944406279747802370e-03
2.994999999999999929e+01   6.801342205821785114e-03
