2.014999999999999858e+01   3.405873548301272091e+00   2.256537413805629006e-04
2.025000000000000000e+01   3.108864757691490510e+00   3.036909271443667202e-04
2.035000000000000142e+01   2.913667331406063710e+00   3.691517933293501463e-04
2.044999999999999929e+01   2.697691482130825769e+00   4.581441042676480738e-04
2.055000000000000071e+01   2.401217663363448995e+00   6.162529987879065150e-04
2.064999999999999858e+01   2.169752083412792132e+00   7.767535910865384745e-04
2.075000000000000000e+01   1.948142721931981569e+00   9.694535216176557559e-04
2.085000000000000142e+01   1.736730579843844380e+00   1.197683645636103559e-03
2.094999999999999929e+01   1.541707274952106355e+00   1.455592014899676238e-03
2.105000000000000071e+01   1.333587363126402581e+00   1.792358970385596936e-03
2.114999999999999858e+01   1.176766385802611614e+00   2.096676747604278405e-03
2.125000000000000000e+01   9.610774997614489612e-01   2.601381047581544873e-03
2.135000000000000142e+01   7.944700557367158078e-01   3.072986592618077214e-03
2.144999999999999929e+01   6.450299695174463999e-01   3.568302549535316750e-03
2.155000000000000071e+01   4.826105414746342803e-01   4.197585312827488077e-03
2.164999999999999858e+01   3.322991266936783927e-01   4.878417327952015714e-03
2.175000000000000000e+01   1.864538288434572366e-01   5.644412665306805001e-03
2.185000000000000142e+01   5.062605882292483400e-02   6.465587726677703324e-03
2.194999999999999929e+01   -6.351672153973032808e-02   7.247355889531512281e-03
2.205000000000000071e+01   -1.824218286077566309e-01   8.162429067520831499e-03
2.214999999999999858e+01   -3.036444012845629925e-01   9.214371430133070501e-03
2.225000000000000000e+01   -4.054854509657090378e-01   1.020222084894705991e-02
2.235000000000000142e+01   -5.069336504426159573e-01   1.129153834691416260e-02
2.244999999999999929e+01   -5.992639803636832241e-01   1.238373547352580699e-02
2.255000000000000071e+01   -6.827054001950924045e-01   1.346138714994139438e-02
2.264999999999999858e+01   -7.639714824259853376e-01   1.460102100822889548e-02
2.275000000000000000e+01   -8.388361421801305839e-01   1.573607926254204370e-02
2.285000000000000142e+01   -9.058463445487187071e-01   1.682669007085179844e-02
2.294999999999999929e+01   -9.694608514166764834e-01   1.793189242692044133e-02
2.305000000000000071e+01   -1.013975024992279650e+00   1.874814850059889140e-02
2.314999999999999858e+01   -1.047547569509854171e+00   1.938825645530999758e-02
2.325000000000000000e+01   -1.073663018236558075e+00   1.990125896197521282e-02
2.335000000000000142e+01   -1.081827435664673098e+00   2.006440624248493482e-02
2.344999999999999929e+01   -1.094259183511181233e+00   2.031539878706210833e-02
2.355000000000000071e+01   -1.095451703242279029e+00   2.033963975200253280e-02
2.364999999999999858e+01   -1.081464418855457854e+00   2.005712384764783349e-02
2.375000000000000000e+01   -1.069830890872419893e+00   1.982514074343123822e-02
2.385000000000000142e+01   -1.053169421621105162e+00   1.949756132582171689e-02
2.394999999999999929e+01   -1.036613535592904256e+00   1.917741935217033220e-02
2.405000000000000071e+01   -1.015947766569769373e+00   1.878517025782035221e-02
2.414999999999999858e+01   -9.956769826600532225e-01   1.840821364155411158e-02
2.425000000000000000e+01   -9.680876392184009083e-01   1.790728503295527935e-02
2.435000000000000142e+01   -9.437383647544589360e-01   1.747652130949628110e-02
2.444999999999999929e+01   -9.234926787592463437e-01   1.712625480370330577e-02
2.455000000000000071e+01   -8.948174864214716306e-01   1.664213050469386113e-02
2.464999999999999858e+01   -8.669447280221502794e-01   1.618467333428117577e-02
2.475000000000000000e+01   -8.411082981456979857e-01   1.577187473996676664e-02
2.485000000000000142e+01   -8.066542416471612631e-01   1.523772433960661823e-02
2.494999999999999929e+01   -7.783892846177823399e-01   1.481306053984019280e-02
2.505000000000000071e+01   -7.506198124612289968e-01   1.440736866249410497e-02
2.514999999999999858e+01   -7.239172439809777870e-01   1.402774592178792322e-02
2.525000000000000000e+01   -6.960771910983025723e-01   1.364259886665120276e-02
2.535000000000000142e+01   -6.592767179624611229e-01   1.314967040269881919e-02
2.544999999999999929e+01   -6.292003958428130650e-01   1.276006499756156612e-02
2.555000000000000071e+01   -6.018955245725533532e-01   1.241636673737102001e-02
2.564999999999999858e+01   -5.717330151240804792e-01   1.204744965969116975e-02
2.575000000000000000e+01   -5.468594256937112652e-01   1.175148248546592673e-02
2.585000000000000142e+01   -5.219053294947069155e-01   1.146186348012669630e-02
2.594999999999999929e+01   -4.991885793540464800e-01   1.120442237489482906e-02
2.605000000000000071e+01   -4.686419258664646370e-01   1.086733935670795674e-02
2.614999999999999858e+01   -4.521556121046054755e-01   1.068964577113913107e-02
2.625000000000000000e+01   -4.237829056167219943e-01   1.039061382212683182e-02
2.635000000000000142e+01   -4.091093470776634433e-01   1.023925970937122551e-02
2.644999999999999929e+01   -3.911982235295256571e-01   1.005749572155412684e-02
2.655000000000000071e+01   -3.747076465710328930e-01   9.893001841518724720e-03
2.664999999999999858e+01   -3.581739342790227765e-01   9.730778567316676966e-03
2.675000000000000000e+01   -3.395865672105186639e-01   9.551579592050739309e-03
2.685000000000000142e+01   -3.269129037363232015e-01   9.431289951953133327e-03
2.694999999999999929e+01   -3.041223128372053663e-01   9.218776137136213550e-03
2.705000000000000071e+01   -2.806378619355181514e-01   9.004800624494466860e-03
2.714999999999999858e+01   -2.701883229554015720e-01   8.911194531378271999e-03
2.725000000000000000e+01   -2.464550129726125749e-01   8.702192356248732857e-03
2.735000000000000142e+01   -2.402743022468461775e-01   8.648572497727192998e-03
2.744999999999999929e+01   -2.186402814660028116e-01   8.463478483547485012e-03
2.755000000000000071e+01   -2.009764458540750087e-01   8.315293600539676658e-03
2.764999999999999858e+01   -1.831746033895206294e-01   8.168575851562540069e-03
2.775000000000000000e+01   -1.763264906357572825e-01   8.112827626027420413e-03
2.785000000000000142e+01   -1.609413845456051095e-01   7.988966166331847724e-03
2.794999999999999929e+01   -1.455134926050008215e-01   7.866659155224418193e-03
2.805000000000000071e+01   -1.400404193045937662e-01   7.823721959428753953e-03
2.814999999999999858e+01   -1.341092601369559267e-01   7.777455561521456895e-03
2.825000000000000000e+01   -1.192288391343757775e-01   7.662580562306359026e-03
2.835000000000000142e+01   -1.113136710150913478e-01   7.602169346787689477e-03
2.844999999999999929e+01   -1.002486863265522193e-01   7.518515129191723212e-03
2.855000000000000071e+01   -8.721220781205407668e-02   7.421136285969910998e-03
2.864999999999999858e+01   -7.879479628299815297e-02   7.358931695934788943e-03
2.875000000000000000e+01   -6.394679257602844946e-02   7.250473437724882717e-03
2.885000000000000142e+01   -6.289363367057271281e-02   7.242841556552388239e-03
2.894999999999999929e+01   -5.860248218545742460e-02   7.211828015741602455e-03
2.905000000000000071e+01   -4.430461155357964115e-02   7.109447884804152330e-03
2.914999999999999858e+01   -6.856326980146335015e-02   7.284022462796187029e-03
2.925000000000000000e+01   -5.406923392985934357e-02   7.179208999878916933e-03
2.935000000000000142e+01   -4.641195465367640299e-02   7.124445728000058757e-03
2.944999999999999929e+01   -5.170731642776928150e-02   7.162272309896849411e-03
2.955000000000000071e+01   -3.076598151986547833e-02   7.013844331016169317e-03
2.964999999999999858e+01   -3.293153488148560515e-02   7.029049643200275914e-03
2.975000000000000000e+01   -2.088226285668607490e-02   6.944862924859902635e-03
2.985000000000000142e+01   -2.081650776107406287e-02   6.944406279747802370e-03
2.994999999999999929e+01   -0.000000000000000000e+00   6.801342205821785114e-03
