2.014999999999999858e+01   5.322351555365017612e-06
2.025000000000000000e+01   1.026691615272917853e-05
2.035000000000000142e+01   1.753375940368684204e-05
2.044999999999999929e+01   2.996739487436211362e-05
2.055000000000000071e+01   5.441243333324110947e-05
2.064999999999999858e+01   9.074664958802943209e-05
2.075000000000000000e+01   1.468924583756274146e-04
2.085000000000000142e+01   2.307056061462293408e-04
2.094999999999999929e+01   3.493973792452045651e-04
2.105000000000000071e+01   5.255238813414277524e-04
2.114999999999999858e+01   7.360623307590819083e-04
2.125000000000000000e+01   1.071859379516255538e-03
2.135000000000000142e+01   1.456768732813540747e-03
2.144999999999999929e+01   1.907868583428799477e-03
2.155000000000000071e+01   2.481571413296454042e-03
2.164999999999999858e+01   3.126542641652858834e-03
2.175000000000000000e+01   3.845304552011724868e-03
2.185000000000000142e+01   4.591878249308125118e-03
2.194999999999999929e+01   5.263661240301472505e-03
2.205000000000000071e+01   5.949422348740852386e-03
2.214999999999999858e+01   6.618094153021251633e-03
2.225000000000000000e+01   7.095705758983276296e-03
2.235000000000000142e+01   7.482170705637035575e-03
2.244999999999999929e+01   7.705165013287600985e-03
2.255000000000000071e+01   7.769633246532335093e-03
2.264999999999999858e+01   7.748577179314345906e-03
2.275000000000000000e+01   7.643174618032107237e-03
2.285000000000000142e+01   7.485493008591219931e-03
2.294999999999999929e+01   7.355100951175335376e-03
2.305000000000000071e+01   7.179985584760821202e-03
2.314999999999999858e+01   7.053882520456358600e-03
2.325000000000000000e+01   7.015714926317154210e-03
2.335000000000000142e+01   6.986547550883264422e-03
2.344999999999999929e+01   7.099161398510872405e-03
2.355000000000000071e+01   7.209908534110712371e-03
2.364999999999999858e+01   7.247853900627563260e-03
2.375000000000000000e+01   7.300055169118387435e-03
2.385000000000000142e+01   7.280865813928167132e-03
2.394999999999999929e+01   7.205663986523761291e-03
2.405000000000000071e+01   7.034104262066901390e-03
2.414999999999999858e+01   6.800643033403489489e-03
2.425000000000000000e+01   6.467079372250967607e-03
2.435000000000000142e+01   6.126671100329959818e-03
2.444999999999999929e+01   5.807063333861234994e-03
2.455000000000000071e+01   5.464088332902045098e-03
2.464999999999999858e+01   5.180292547775577905e-03
2.475000000000000000e+01   4.982821082552306262e-03
2.485000000000000142e+01   4.834384142201322496e-03
2.494999999999999929e+01   4.813083624598744371e-03
2.505000000000000071e+01   4.889885490884094722e-03
2.514999999999999858e+01   5.052778338069170705e-03
2.525000000000000000e+01   5.272628124863434386e-03
2.535000000000000142e+01   5.481666537830202739e-03
2.544999999999999929e+01   5.733394877051068220e-03
2.555000000000000071e+01   5.980956448352806216e-03
2.564999999999999858e+01   6.157660742267148483e-03
2.575000000000000000e+01   6.299686415713235191e-03
2.585000000000000142e+01   6.372188177506046304e-03
2.594999999999999929e+01   6.349676519361642513e-03
2.605000000000000071e+01   6.192950488696875519e-03
2.614999999999999858e+01   6.038080058678759257e-03
2.625000000000000000e+01   5.751873103849757148e-03
2.635000000000000142e+01   5.489266722514690028e-03
2.644999999999999929e+01   5.221093539239669845e-03
2.655000000000000071e+01   4.940153379060444570e-03
2.664999999999999858e+01   4.678702581361615827e-03
2.675000000000000000e+01   4.483420058218525600e-03
2.685000000000000142e+01   4.395140135238619419e-03
2.694999999999999929e+01   4.371517338982448125e-03
2.705000000000000071e+01   4.413373911652719410e-03
2.714999999999999858e+01   4.595422779884662107e-03
2.725000000000000000e+01   4.828006209439778158e-03
2.735000000000000142e+01   5.106957432398940948e-03
2.744999999999999929e+01   5.408664763887095599e-03
2.755000000000000071e+01   5.723561304761927773e-03
2.764999999999999858e+01   5.980134206150098525e-03
2.775000000000000000e+01   6.193250495987052615e-03
2.785000000000000142e+01   6.304164302303657055e-03
2.794999999999999929e+01   6.346520887124223499e-03
2.805000000000000071e+01   6.337831787090204144e-03
2.814999999999999858e+01   6.213973221771511117e-03
2.825000000000000000e+01   5.984800986219520301e-03
2.835000000000000142e+01   5.786162825978893864e-03
2.844999999999999929e+01   5.461210485192567743e-03
2.855000000000000071e+01   5.158136453826939367e-03
2.864999999999999858e+01   4.895074505866047962e-03
2.875000000000000000e+01   4.662435519405343752e-03
2.885000000000000142e+01   4.519776497235549265e-03
2.894999999999999929e+01   4.513687460383064738e-03
2.905000000000000071e+01   4.526354434857211666e-03
2.914999999999999858e+01   4.659657674125925429e-03
2.925000000000000000e+01   4.857940270170787479e-03
2.935000000000000142e+01   5.122613368393740679e-03
2.944999999999999929e+01   5.411453720547631206e-03
2.955000000000000071e+01   5.727539179202054478e-03
2.964999999999999858e+01   5.943611096416309518e-03
2.975000000000000000e+01   6.207773071107850274e-03
2.985000000000000142e+01   6.368454753450508536e-03
2.994999999999999929e+01   6.457945816972241251e-03
3.005000000000000071e+01   6.537114407435656513e-03
3.014999999999999858e+01   6.464968209838609786e-03
3.025000000000000000e+01   6.228484685511191492e-03
3.035000000000000142e+01   5.980600884157040963e-03
3.044999999999999929e+01   5.664659873457147596e-03
3.055000000000000071e+01   5.360074694259514723e-03
3.064999999999999858e+01   5.045700388297213144e-03
3.075000000000000000e+01   4.850540090346417386e-03
3.085000000000000142e+01   4.709625555012098182e-03
3.094999999999999929e+01   4.627968015178324408e-03
3.105000000000000071e+01   4.672324648600072357e-03
3.114999999999999858e+01   4.784460706839620617e-03
3.125000000000000000e+01   4.916363912087507934e-03
3.135000000000000142e+01   5.187581613788770814e-03
3.144999999999999929e+01   5.422942888623304321e-03
3.155000000000000071e+01   5.709594298697014299e-03
3.164999999999999858e+01   6.061547295599283361e-03
3.175000000000000000e+01   6.259685443689614638e-03
3.185000000000000142e+01   6.421611600717453024e-03
3.194999999999999929e+01   6.494335590132617637e-03
3.204999999999999716e+01   6.468679411131912985e-03
3.214999999999999858e+01   6.364832443206147952e-03
3.225000000000000000e+01   6.177405666513252104e-03
3.235000000000000142e+01   5.944877793863724211e-03
3.245000000000000284e+01   5.659326410520664451e-03
3.254999999999999716e+01   5.327496124822499700e-03
3.264999999999999858e+01   5.052489442160110894e-03
3.275000000000000000e+01   4.833128556135025088e-03
3.285000000000000142e+01   4.686747221290810984e-03
3.295000000000000284e+01   4.569655487072780270e-03
3.304999999999999716e+01   4.572500000638904036e-03
3.314999999999999858e+01   4.629001373622268316e-03
3.325000000000000000e+01   4.803816732746605395e-03
3.335000000000000142e+01   5.017433034733855511e-03
3.345000000000000284e+01   5.328073916640618454e-03
3.354999999999999716e+01   5.613347515455736556e-03
3.364999999999999858e+01   5.916977115877249116e-03
3.375000000000000000e+01   6.171216627230708546e-03
3.385000000000000142e+01   6.312797845432088252e-03
3.395000000000000284e+01   6.421222702378334181e-03
3.404999999999999716e+01   6.423278307885103844e-03
3.414999999999999858e+01   6.296486337951345304e-03
3.425000000000000000e+01   6.201039574150540683e-03
3.435000000000000142e+01   5.950177922656853767e-03
3.445000000000000284e+01   5.730839259394003397e-03
3.454999999999999716e+01   5.432798683674680204e-03
3.464999999999999858e+01   5.196215156917202010e-03
3.475000000000000000e+01   4.882507533821960934e-03
3.485000000000000142e+01   4.753415507996844661e-03
3.495000000000000284e+01   4.649490760403255166e-03
3.504999999999999716e+01   4.662291071450813847e-03
3.514999999999999858e+01   4.769182557802821576e-03
3.525000000000000000e+01   4.935553267277728237e-03
3.535000000000000142e+01   5.197759638892558362e-03
3.545000000000000284e+01   5.408486981789212972e-03
3.554999999999999716e+01   5.727016944289523882e-03
3.564999999999999858e+01   5.965567185504829992e-03
3.575000000000000000e+01   6.245296205142229599e-03
3.585000000000000142e+01   6.370177017523748382e-03
3.595000000000000284e+01   6.523047398940683139e-03
3.604999999999999716e+01   6.510191530987536300e-03
3.614999999999999858e+01   6.434156349999304615e-03
3.625000000000000000e+01   6.271052386572994151e-03
3.635000000000000142e+01   5.975356312269499565e-03
3.645000000000000284e+01   5.704171944711589406e-03
3.654999999999999716e+01   5.361574730710401068e-03
3.664999999999999858e+01   5.051722756862991361e-03
3.675000000000000000e+01   4.830384044998960354e-03
3.685000000000000142e+01   4.655724245210269598e-03
3.695000000000000284e+01   4.604534112401153893e-03
3.704999999999999716e+01   4.621967869374781629e-03
3.714999999999999858e+01   4.694447408405357305e-03
3.725000000000000000e+01   4.868762755379400092e-03
3.735000000000000142e+01   5.101735083273634987e-03
3.745000000000000284e+01   5.375852855446609790e-03
3.754999999999999716e+01   5.648070581448462121e-03
3.764999999999999858e+01   5.935021998812349195e-03
3.775000000000000000e+01   6.221562295074881122e-03
3.785000000000000142e+01   6.386966314392551053e-03
3.795000000000000284e+01   6.421867162483159246e-03
3.804999999999999716e+01   6.398555484898283199e-03
3.814999999999999858e+01   6.250151878690652155e-03
3.825000000000000000e+01   5.962411553267410978e-03
3.835000000000000142e+01   5.605480657624424892e-03
3.845000000000000284e+01   5.141702721153901950e-03
3.854999999999999716e+01   4.668368996922181088e-03
3.864999999999999858e+01   4.124000213205181002e-03
3.875000000000000000e+01   3.611709986774900780e-03
3.885000000000000142e+01   3.055618695978756794e-03
3.895000000000000284e+01   2.567240161713707242e-03
3.904999999999999716e+01   2.115784746902683259e-03
3.914999999999999858e+01   1.700296872769563880e-03
3.925000000000000000e+01   1.333343511358437219e-03
3.935000000000000142e+01   1.026947177038624271e-03
3.945000000000000284e+01   7.721965421537520724e-04
3.954999999999999716e+01   5.638803689596323795e-04
3.964999999999999858e+01   4.184101673670670104e-04
3.975000000000000000e+01   2.936293574156074223e-04
3.985000000000000142e+01   2.154163457283123106e-04
3.995000000000000284e+01   1.539926309098200053e-04
